<svg xmlns="http://www.w3.org/2000/svg" xmlns:xlink="http://www.w3.org/1999/xlink" xmlns:ifc="http://www.ifcopenshell.org/ns" width="189.583mm" height="113.75mm" viewBox="0 0 189.583 113.75">
    <defs>
        <marker id="arrowend" markerWidth="10" markerHeight="7" refX="10" refY="3.5" orient="auto">
          <polygon points="0 0, 10 3.5, 0 7"/>
        </marker>
        <marker id="arrowstart" markerWidth="10" markerHeight="7" refX="0" refY="3.5" orient="auto">
          <polygon points="10 0, 0 3.5, 10 7"/>
        </marker>
    </defs>
    <g ifc:name="Elevation SOUTH SECTION" class="section" ifc:plane="[[-1.000000,-0.000000,-0.000000,-0.000000],[-0.000000,0.000000,1.000000,1.437435],[-0.000000,1.000000,-0.000000,-0.000000],[0.000000,0.000000,0.000000,1.000000]]" ifc:matrix3="[[20.833334,0.000000,101.141698],[0.000000,20.833334,88.625020],[0.000000,0.000000,1.000000]]">
        <g class="projection">
            <path d="M101.142,88.625 L99.0584,88.625"/>
            <path d="M101.142,26.125 L101.142,88.625"/>
            <path d="M101.142,26.125 L99.0584,26.125"/>
            <path d="M99.0584,88.625 L99.0584,26.125"/>
            <path d="M25.9543,26.125 L25.9543,88.625"/>
            <path d="M25.9543,26.125 L23.8709,26.125"/>
            <path d="M25.9543,88.625 L23.8709,88.625"/>
            <path d="M23.8709,88.625 L23.8709,26.125"/>
            <path d="M25.9543,88.625 L23.8709,88.625"/>
            <path d="M25.9543,88.625 L25.9543,88.625"/>
            <path d="M30.5626,88.625 L25.9543,88.625"/>
            <path d="M30.5626,43.9375 L30.5626,88.625"/>
            <path d="M51.6043,43.9375 L30.5626,43.9375"/>
            <path d="M51.6043,88.625 L51.6043,43.9375"/>
            <path d="M101.142,88.625 L51.6043,88.625"/>
            <path d="M99.0584,26.125 L25.9543,26.125"/>
            <path d="M23.8709,88.625 L23.8709,88.625"/>
            <path d="M101.142,88.625 L101.142,88.625"/>
            <path d="M25.9543,26.125 L25.9543,88.625"/>
            <path d="M25.9543,26.125 L23.8709,26.125"/>
            <path d="M25.9543,88.625 L23.8709,88.625"/>
            <path d="M23.8709,88.625 L23.8709,26.125"/>
            <path d="M155.738,88.625 L155.738,88.625"/>
            <path d="M155.738,26.125 L134.905,26.125"/>
            <path d="M155.738,88.625 L134.905,88.625"/>
            <path d="M134.905,88.625 L134.905,26.125"/>
            <path d="M155.738,88.625 L155.738,26.125"/>
            <path d="M50.6668,44.875 L50.6668,88.625"/>
            <path d="M31.5001,88.625 L50.6668,88.625"/>
            <path d="M31.5001,44.875 L50.6668,88.625"/>
            <path d="M31.5001,44.875 L50.6668,44.875"/>
            <path d="M31.5001,44.875 L31.5001,88.625"/>
            <path d="M30.5626,88.625 L30.5626,43.9375"/>
            <path d="M31.3959,88.625 L31.3959,44.7709"/>
            <path d="M30.5626,88.625 L31.3959,44.7709"/>
            <path d="M31.3959,44.7709 L30.5626,43.9375"/>
            <path d="M31.3959,44.7709 L51.6043,43.9375"/>
            <path d="M50.6668,74.1112 L50.7709,88.625"/>
            <path d="M37.1345,44.7709 L37.1345,44.7709"/>
            <path d="M50.7709,44.7709 L50.7709,44.7709"/>
            <path d="M50.7709,44.7709 L51.6043,43.9375"/>
            <path d="M51.6043,88.625 L51.6043,43.9375"/>
            <path d="M50.7709,44.7709 L51.6043,88.625"/>
            <path d="M31.3959,56.9582 L31.3959,56.9582"/>
            <path d="M51.6043,43.9375 L30.5626,43.9375"/>
            <path d="M50.7709,88.625 L51.6043,88.625"/>
            <path d="M51.6043,88.625 L51.6043,88.625"/>
            <path d="M50.7709,88.625 L50.6668,88.625"/>
            <path d="M50.7709,44.7709 L50.7709,88.625"/>
            <path d="M50.7709,44.7709 L50.6668,44.875"/>
            <path d="M31.3959,44.7709 L37.7503,44.875"/>
            <path d="M50.7709,44.7709 L31.3959,44.7709"/>
            <path d="M30.5626,88.625 L31.3959,88.625"/>
            <path d="M31.3959,88.625 L31.3959,88.625"/>
            <path d="M31.3959,88.625 L31.3959,88.625"/>
            <path d="M31.3959,88.625 L31.3959,88.625"/>
            <path d="M31.3959,88.625 L31.3959,88.625"/>
            <path d="M31.5001,44.875 L31.3959,44.7709"/>
            <path d="M31.3959,88.625 L31.5001,88.625"/>
            <path d="M31.5001,74.1111 L31.3959,88.625"/>
        </g>
    <g id="product-83411768-63b7-4035-97ce-228ff68cc3f9-body" class="IfcWall cut material-poche" ifc:name="Wall" ifc:guid="23GHTeOxT0DPVE8e$sZCFv">
"/&gt;
        </g>
        <g id="product-cf718eb6-b59b-454b-bea0-1ef93554621c-body" class="IfcWall cut material-poche" ifc:name="Wall" ifc:guid="3FSOwsjPj5IxwW7larL68S">
"/&gt;
        </g>
        <g id="product-96323428-25ce-4b7e-bd5d-21788ddedd1a-body" class="IfcDoor cut" ifc:name="Door" ifc:guid="2MCZGe9SvBVhrT8NYDtjqQ">
"/&gt;
"/&gt;
        </g>
        <g id="product-abd6ec8f-620a-41ec-b0d3-a39f73b384c3-body" class="IfcWall cut material-poche" ifc:name="Wall" ifc:guid="2hrkoFOWf1xB3JevzpiuJ3">
"/&gt;
        </g>
        <g class="projection">
            <path d="M101.142,88.625 L99.0584,88.625"/>
            <path d="M101.142,26.125 L101.142,88.625"/>
            <path d="M101.142,26.125 L99.0584,26.125"/>
            <path d="M99.0584,88.625 L99.0584,26.125"/>
            <path d="M25.9543,26.125 L25.9543,88.625"/>
            <path d="M25.9543,26.125 L23.8709,26.125"/>
            <path d="M25.9543,88.625 L23.8709,88.625"/>
            <path d="M23.8709,88.625 L23.8709,26.125"/>
            <path d="M25.9543,88.625 L23.8709,88.625"/>
            <path d="M25.9543,88.625 L25.9543,88.625"/>
            <path d="M30.5626,88.625 L25.9543,88.625"/>
            <path d="M30.5626,43.9375 L30.5626,88.625"/>
            <path d="M51.6043,43.9375 L30.5626,43.9375"/>
            <path d="M51.6043,88.625 L51.6043,43.9375"/>
            <path d="M101.142,88.625 L51.6043,88.625"/>
            <path d="M99.0584,26.125 L25.9543,26.125"/>
            <path d="M23.8709,88.625 L23.8709,88.625"/>
            <path d="M101.142,88.625 L101.142,88.625"/>
            <path d="M25.9543,26.125 L25.9543,88.625"/>
            <path d="M25.9543,26.125 L23.8709,26.125"/>
            <path d="M25.9543,88.625 L23.8709,88.625"/>
            <path d="M23.8709,88.625 L23.8709,26.125"/>
            <path d="M155.738,88.625 L155.738,88.625"/>
            <path d="M155.738,26.125 L134.905,26.125"/>
            <path d="M155.738,88.625 L134.905,88.625"/>
            <path d="M134.905,88.625 L134.905,26.125"/>
            <path d="M155.738,88.625 L155.738,26.125"/>
            <path d="M50.6668,44.875 L50.6668,88.625"/>
            <path d="M31.5001,88.625 L50.6668,88.625"/>
            <path d="M31.5001,44.875 L50.6668,88.625"/>
            <path d="M31.5001,44.875 L50.6668,44.875"/>
            <path d="M31.5001,44.875 L31.5001,88.625"/>
            <path d="M30.5626,88.625 L30.5626,43.9375"/>
            <path d="M31.3959,88.625 L31.3959,44.7709"/>
            <path d="M30.5626,88.625 L31.3959,44.7709"/>
            <path d="M31.3959,44.7709 L30.5626,43.9375"/>
            <path d="M31.3959,44.7709 L51.6043,43.9375"/>
            <path d="M50.6668,74.1112 L50.7709,88.625"/>
            <path d="M37.1345,44.7709 L37.1345,44.7709"/>
            <path d="M50.7709,44.7709 L50.7709,44.7709"/>
            <path d="M50.7709,44.7709 L51.6043,43.9375"/>
            <path d="M51.6043,88.625 L51.6043,43.9375"/>
            <path d="M50.7709,44.7709 L51.6043,88.625"/>
            <path d="M31.3959,56.9582 L31.3959,56.9582"/>
            <path d="M51.6043,43.9375 L30.5626,43.9375"/>
            <path d="M50.7709,88.625 L51.6043,88.625"/>
            <path d="M51.6043,88.625 L51.6043,88.625"/>
            <path d="M50.7709,88.625 L50.6668,88.625"/>
            <path d="M50.7709,44.7709 L50.7709,88.625"/>
            <path d="M50.7709,44.7709 L50.6668,44.875"/>
            <path d="M31.3959,44.7709 L37.7503,44.875"/>
            <path d="M50.7709,44.7709 L31.3959,44.7709"/>
            <path d="M30.5626,88.625 L31.3959,88.625"/>
            <path d="M31.3959,88.625 L31.3959,88.625"/>
            <path d="M31.3959,88.625 L31.3959,88.625"/>
            <path d="M31.3959,88.625 L31.3959,88.625"/>
            <path d="M31.3959,88.625 L31.3959,88.625"/>
            <path d="M31.5001,44.875 L31.3959,44.7709"/>
            <path d="M31.3959,88.625 L31.5001,88.625"/>
            <path d="M31.5001,74.1111 L31.3959,88.625"/>
        </g>
        <g id="product-83411768-63b7-4035-97ce-228ff68cc3f9-body" class="IfcWall cut material-poche" ifc:name="Wall" ifc:guid="23GHTeOxT0DPVE8e$sZCFv">
"/&gt;
        </g>
        <g id="product-cf718eb6-b59b-454b-bea0-1ef93554621c-body" class="IfcWall cut material-poche" ifc:name="Wall" ifc:guid="3FSOwsjPj5IxwW7larL68S">
"/&gt;
        </g>
        <g id="product-96323428-25ce-4b7e-bd5d-21788ddedd1a-body" class="IfcDoor cut" ifc:name="Door" ifc:guid="2MCZGe9SvBVhrT8NYDtjqQ">
"/&gt;
"/&gt;
        </g>
        <g id="product-abd6ec8f-620a-41ec-b0d3-a39f73b384c3-body" class="IfcWall cut material-poche" ifc:name="Wall" ifc:guid="2hrkoFOWf1xB3JevzpiuJ3">
"/&gt;
        </g>
        <g class="cut material-poche IfcWall 0xs3_ZLl17Lwg0VlQGjdRW 3EKKv6_MnFRvwul5lE3LCF 1fR5GKW0nBy8zpF0MLhGDC"><path d="M26.0,88.6 L26.0,26.1 L23.9,26.1 L23.9,88.6 Z"/></g><g class="cut material-poche IfcWall 0xs3_ZLl17Lwg0VlQGjdRW 3EKKv6_MnFRvwul5lE3LCF 1fR5GKW0nBy8zpF0MLhGDC"><path d="M101.1,26.1 L99.1,26.1 L99.1,88.6 L101.1,88.6 Z"/></g></g>
</svg>