<?xml version="1.0" encoding="UTF-8" standalone="no"?>
<svg
   id="root"
   version="1.1"
   viewBox="0 0 50.222462 10"
   height="10mm"
   width="50.222462mm"
   sodipodi:docname="view-title.svg"
   inkscape:version="1.2 (dc2aedaf03, 2022-05-15)"
   xmlns:inkscape="http://www.inkscape.org/namespaces/inkscape"
   xmlns:sodipodi="http://sodipodi.sourceforge.net/DTD/sodipodi-0.dtd"
   xmlns="http://www.w3.org/2000/svg"
   xmlns:svg="http://www.w3.org/2000/svg"
   xmlns:rdf="http://www.w3.org/1999/02/22-rdf-syntax-ns#"
   xmlns:cc="http://creativecommons.org/ns#"
   xmlns:dc="http://purl.org/dc/elements/1.1/">
  <sodipodi:namedview
     pagecolor="#ffffff"
     bordercolor="#666666"
     borderopacity="1"
     objecttolerance="10"
     gridtolerance="10"
     guidetolerance="10"
     inkscape:pageopacity="0"
     inkscape:pageshadow="2"
     inkscape:window-width="1920"
     inkscape:window-height="1017"
     id="namedview14"
     showgrid="false"
     inkscape:zoom="4.2318262"
     inkscape:cx="40.998848"
     inkscape:cy="26.466115"
     inkscape:window-x="-8"
     inkscape:window-y="-8"
     inkscape:window-maximized="1"
     inkscape:current-layer="layer1"
     inkscape:showpageshadow="0"
     inkscape:pagecheckerboard="1"
     inkscape:deskcolor="#d1d1d1"
     inkscape:document-units="mm" />
  <defs
     id="defs2" />
  <metadata
     id="metadata5">
    <rdf:RDF>
      <cc:Work
         rdf:about="">
        <dc:format>image/svg+xml</dc:format>
        <dc:type
           rdf:resource="http://purl.org/dc/dcmitype/StillImage" />
        <dc:title />
      </cc:Work>
    </rdf:RDF>
  </metadata>
  <g
     transform="translate(-27.82024,-96.649986)"
     id="layer1">
    <circle
       r="4.8499999"
       cy="101.64999"
       cx="32.82024"
       id="path853"
       style="fill:none;fill-opacity:1;stroke:#2c5573;stroke-width:0.30000001;stroke-linejoin:round;stroke-miterlimit:4;stroke-dasharray:none;stroke-opacity:1" />
    <path
       id="path855"
       d="m 37.67024,101.64999 40.37246,-1e-5"
       style="fill:none;fill-rule:evenodd;stroke:#2c5573;stroke-width:0.26458332px;stroke-linecap:butt;stroke-linejoin:miter;stroke-opacity:1" />
    <text
       id="text859"
       y="103.10933"
       x="32.822662"
       style="font-style:normal;font-variant:normal;font-weight:normal;font-stretch:normal;font-size:24.8028px;line-height:125%;font-family:Arial;-inkscape-font-specification:Arial;letter-spacing:0px;word-spacing:0px;fill:#000000;fill-opacity:1;stroke:none;stroke-width:0.264583px;stroke-linecap:butt;stroke-linejoin:miter;stroke-opacity:1"
       xml:space="preserve"><tspan
         style="font-style:normal;font-variant:normal;font-weight:normal;font-stretch:normal;font-size:4.96055px;font-family:'Century Gothic';-inkscape-font-specification:'Century Gothic';text-align:center;text-anchor:middle;stroke-width:0.264583px"
         y="103.10933"
         x="32.822662"
         id="tspan857">{{Identification}}</tspan></text>
    <text
       xml:space="preserve"
       style="font-style:normal;font-variant:normal;font-weight:normal;font-stretch:normal;font-size:17.7163px;line-height:125%;font-family:Arial;-inkscape-font-specification:Arial;letter-spacing:0px;word-spacing:0px;fill:#000000;fill-opacity:1;stroke:none;stroke-width:0.264583px;stroke-linecap:butt;stroke-linejoin:miter;stroke-opacity:1"
       x="39.12896"
       y="100.19173"
       id="text863"><tspan
         id="tspan861"
         x="39.12896"
         y="100.19173"
         style="font-style:normal;font-variant:normal;font-weight:normal;font-stretch:normal;font-size:3.54325px;font-family:'Century Gothic';-inkscape-font-specification:'Century Gothic';text-align:start;text-anchor:start;stroke-width:0.264583px">{{Name}}</tspan></text>
    <text
       id="text867"
       y="105.0553"
       x="39.285267"
       style="font-style:normal;font-variant:normal;font-weight:normal;font-stretch:normal;font-size:17.7163px;line-height:125%;font-family:Arial;-inkscape-font-specification:Arial;letter-spacing:0px;word-spacing:0px;fill:#000000;fill-opacity:1;stroke:none;stroke-width:0.264583px;stroke-linecap:butt;stroke-linejoin:miter;stroke-opacity:1"
       xml:space="preserve"><tspan
         style="font-style:normal;font-variant:normal;font-weight:normal;font-stretch:normal;font-size:3.54325px;font-family:'Century Gothic';-inkscape-font-specification:'Century Gothic';text-align:start;text-anchor:start;stroke-width:0.264583px"
         y="105.0553"
         x="39.285267"
         id="tspan865">{{Scale}}</tspan></text>
  </g>
</svg>
